\relax 
\providecommand\hyper@newdestlabel[2]{}
\citation{Batchelor2000}
\citation{howe2003theory}
\@writefile{toc}{\contentsline {chapter}{\numberline {2}Fluid Mechanics and Acoustics Background}{29}{chapter.2}}
\@writefile{lof}{\addvspace {10\p@ }}
\@writefile{lot}{\addvspace {10\p@ }}
\@writefile{toc}{\contentsline {section}{\numberline {2.1}Introduction}{29}{section.2.1}}
\@writefile{toc}{\contentsline {section}{\numberline {2.2}Conservation Laws}{30}{section.2.2}}
\@writefile{toc}{\contentsline {subsection}{\numberline {2.2.1}Mass Conservation}{30}{subsection.2.2.1}}
\newlabel{eq:mass}{{2.1}{30}{Mass Conservation}{equation.2.2.1}{}}
\newlabel{eq:flux}{{2.2}{30}{Mass Conservation}{equation.2.2.2}{}}
\citation{Batchelor2000}
\newlabel{eq:conservation1}{{2.3}{31}{Mass Conservation}{equation.2.2.3}{}}
\newlabel{eq:continuity}{{2.6}{31}{Mass Conservation}{equation.2.2.6}{}}
\@writefile{toc}{\contentsline {subsection}{\numberline {2.2.2}Energy Conservation}{31}{subsection.2.2.2}}
\citation{howe2003theory}
\newlabel{eq:constitutive}{{2.7}{32}{Energy Conservation}{equation.2.2.7}{}}
\@writefile{toc}{\contentsline {subsection}{\numberline {2.2.3}Momentum Conservation}{32}{subsection.2.2.3}}
\newlabel{eq:momentum}{{2.9}{33}{Momentum Conservation}{equation.2.2.9}{}}
\newlabel{eq:momentum_flux}{{2.10}{33}{Momentum Conservation}{equation.2.2.10}{}}
\newlabel{eq:force}{{2.11}{33}{Momentum Conservation}{equation.2.2.11}{}}
\newlabel{eq:momentum_conservation1}{{2.12}{34}{Momentum Conservation}{equation.2.2.12}{}}
\citation{Batchelor2000}
\newlabel{eq:momentum_transport}{{2.19}{35}{Momentum Conservation}{equation.2.2.19}{}}
\@writefile{toc}{\contentsline {section}{\numberline {2.3}The Stress Tensor}{35}{section.2.3}}
\@writefile{toc}{\contentsline {subsection}{\numberline {2.3.1}Symmetry of the Stress Tensor}{36}{subsection.2.3.1}}
\citation{Batchelor2000}
\@writefile{toc}{\contentsline {subsection}{\numberline {2.3.2}The Stress Tensor in a Static Fluid}{38}{subsection.2.3.2}}
\citation{Batchelor2000}
\@writefile{toc}{\contentsline {subsection}{\numberline {2.3.3}The Stress Tensor in a Moving Fluid}{40}{subsection.2.3.3}}
\newlabel{eq:stress}{{2.30}{40}{The Stress Tensor in a Moving Fluid}{equation.2.3.30}{}}
\citation{Batchelor2000}
\newlabel{eq:deviatoric}{{2.34}{41}{The Stress Tensor in a Moving Fluid}{equation.2.3.34}{}}
\newlabel{eq:rate_of_strain}{{2.35}{41}{The Stress Tensor in a Moving Fluid}{equation.2.3.35}{}}
\@writefile{toc}{\contentsline {section}{\numberline {2.4}The Navier-Stokes and Euler Equations}{41}{section.2.4}}
\citation{Batchelor2000}
\citation{Batchelor2000}
\newlabel{eq:navier}{{2.37}{42}{The Navier-Stokes and Euler Equations}{equation.2.4.37}{}}
\citation{Riede2011}
\newlabel{eq:euler}{{2.38}{43}{The Navier-Stokes and Euler Equations}{equation.2.4.38}{}}
\@writefile{toc}{\contentsline {section}{\numberline {2.5}Linear Acoustic Flow}{43}{section.2.5}}
\@writefile{toc}{\contentsline {subsection}{\numberline {2.5.1}Introduction}{43}{subsection.2.5.1}}
\@writefile{toc}{\contentsline {subsection}{\numberline {2.5.2}The Acoustic Wave Equation}{44}{subsection.2.5.2}}
\newlabel{eq:linear1}{{2.41}{44}{The Acoustic Wave Equation}{equation.2.5.41}{}}
\newlabel{eq:linear2}{{2.42}{45}{The Acoustic Wave Equation}{equation.2.5.42}{}}
\newlabel{eq:pressure_wave}{{2.45}{45}{The Acoustic Wave Equation}{equation.2.5.45}{}}
\citation{howe2003theory}
\citation{Chanaud1965}
\newlabel{eq:velocity_potential}{{2.46}{46}{The Acoustic Wave Equation}{equation.2.5.46}{}}
\newlabel{eq:potential_wave}{{2.47}{46}{The Acoustic Wave Equation}{equation.2.5.47}{}}
\@writefile{toc}{\contentsline {section}{\numberline {2.6}Acoustic Boundary Value Problems}{46}{section.2.6}}
\newlabel{sec:bvp}{{2.6}{46}{Acoustic Boundary Value Problems}{section.2.6}{}}
\@writefile{toc}{\contentsline {subsection}{\numberline {2.6.1}Formulation of the Boundary Value Problem}{46}{subsection.2.6.1}}
\citation{fletcher2012physics}
\newlabel{eq:one_boundary}{{2.50}{48}{Formulation of the Boundary Value Problem}{equation.2.6.50}{}}
\newlabel{eq:decaying_solution}{{2.51}{48}{Formulation of the Boundary Value Problem}{equation.2.6.51}{}}
\newlabel{eq:helmholtz}{{2.52}{49}{Formulation of the Boundary Value Problem}{equation.2.6.52}{}}
\@writefile{toc}{\contentsline {subsection}{\numberline {2.6.2}Impedance Boundary Conditions}{49}{subsection.2.6.2}}
\newlabel{ssec:impedance}{{2.6.2}{49}{Impedance Boundary Conditions}{subsection.2.6.2}{}}
\newlabel{eq:impedance_definition}{{2.53}{49}{Impedance Boundary Conditions}{equation.2.6.53}{}}
\citation{fletcher2012physics}
\citation{rayleigh1896theory}
\citation{pierce1981acoustics}
\newlabel{eq:boundary_two}{{2.55}{50}{Impedance Boundary Conditions}{equation.2.6.55}{}}
\@writefile{toc}{\contentsline {subsection}{\numberline {2.6.3}Calculation of the Mouth Impedance}{50}{subsection.2.6.3}}
\newlabel{ssec:exit_impedance}{{2.6.3}{50}{Calculation of the Mouth Impedance}{subsection.2.6.3}{}}
\newlabel{eq:spherical_wave}{{2.56}{51}{Calculation of the Mouth Impedance}{equation.2.6.56}{}}
\newlabel{eq:dp_at_ds_prime}{{2.57}{51}{Calculation of the Mouth Impedance}{equation.2.6.57}{}}
\newlabel{eq:p_at_ds_prime}{{2.58}{51}{Calculation of the Mouth Impedance}{equation.2.6.58}{}}
\citation{Aarts2003}
\newlabel{eq:mouth_impedance}{{2.62}{52}{Calculation of the Mouth Impedance}{equation.2.6.62}{}}
\@writefile{lof}{\contentsline {figure}{\numberline {2.1}{\ignorespaces Impedance of the mouth of a half open pipe}}{53}{figure.caption.17}}
\newlabel{fig:impedance}{{2.1}{53}{Impedance of the mouth of a half open pipe}{figure.caption.17}{}}
\@writefile{toc}{\contentsline {subsection}{\numberline {2.6.4}An Example}{53}{subsection.2.6.4}}
\newlabel{eq:low_frequency_impedance}{{2.64}{54}{An Example}{equation.2.6.64}{}}
\newlabel{eq:resonance_modes}{{2.65}{55}{An Example}{equation.2.6.65}{}}
\newlabel{eq:characteristic1}{{2.66}{55}{An Example}{equation.2.6.66}{}}
\newlabel{eq:characteristic}{{2.68}{55}{An Example}{equation.2.6.68}{}}
\newlabel{eq:end_correction}{{2.69}{56}{An Example}{equation.2.6.69}{}}
\@writefile{lof}{\contentsline {figure}{\numberline {2.2}{\ignorespaces Eigenfrequencies of half open pipe}}{57}{figure.caption.18}}
\newlabel{fig:end_correction}{{2.2}{57}{Eigenfrequencies of half open pipe}{figure.caption.18}{}}
\@writefile{lof}{\contentsline {figure}{\numberline {2.3}{\ignorespaces Eigenmodes of half open pipe}}{58}{figure.caption.19}}
\newlabel{fig:resonance_modes}{{2.3}{58}{Eigenmodes of half open pipe}{figure.caption.19}{}}
\@writefile{toc}{\contentsline {section}{\numberline {2.7}Inviscid, Incompressible, Potential Flow}{59}{section.2.7}}
\@writefile{toc}{\contentsline {subsection}{\numberline {2.7.1}Bernoulli's Equation}{59}{subsection.2.7.1}}
\citation{Batchelor2000}
\@writefile{toc}{\contentsline {subsection}{\numberline {2.7.2}The Continuity Equation}{61}{subsection.2.7.2}}
\newlabel{eq:incompressible}{{2.76}{61}{The Continuity Equation}{equation.2.7.76}{}}
\citation{Batchelor2000}
\citation{rienstra2003introduction}
\citation{Cummings1986}
\@writefile{toc}{\contentsline {section}{\numberline {2.8}Nonlinear Energy Losses at an Orifice}{63}{section.2.8}}
\newlabel{sec:nonlinear_energy}{{2.8}{63}{Nonlinear Energy Losses at an Orifice}{section.2.8}{}}
\newlabel{eq:linear_aperture}{{2.82}{63}{Nonlinear Energy Losses at an Orifice}{equation.2.8.82}{}}
\citation{Ingard1967}
\newlabel{eq:nonlinear_aperture}{{2.86}{65}{Nonlinear Energy Losses at an Orifice}{equation.2.8.86}{}}
\@setckpt{chapter2/chapter2}{
\setcounter{page}{66}
\setcounter{equation}{86}
\setcounter{enumi}{0}
\setcounter{enumii}{0}
\setcounter{enumiii}{0}
\setcounter{enumiv}{0}
\setcounter{footnote}{0}
\setcounter{mpfootnote}{0}
\setcounter{part}{0}
\setcounter{chapter}{2}
\setcounter{section}{8}
\setcounter{subsection}{0}
\setcounter{subsubsection}{0}
\setcounter{paragraph}{0}
\setcounter{subparagraph}{0}
\setcounter{figure}{3}
\setcounter{table}{0}
\setcounter{parentequation}{0}
\setcounter{ContinuedFloat}{0}
\setcounter{subfigure}{0}
\setcounter{subtable}{0}
\setcounter{Item}{0}
\setcounter{Hfootnote}{0}
\setcounter{bookmark@seq@number}{29}
\setcounter{lstnumber}{1}
\setcounter{r@tfl@t}{1}
\setcounter{section@level}{1}
\setcounter{lstlisting}{0}
}
