\relax 
\providecommand\hyper@newdestlabel[2]{}
\providecommand\HyperFirstAtBeginDocument{\AtBeginDocument}
\HyperFirstAtBeginDocument{\ifx\hyper@anchor\@undefined
\global\let\oldcontentsline\contentsline
\gdef\contentsline#1#2#3#4{\oldcontentsline{#1}{#2}{#3}}
\global\let\oldnewlabel\newlabel
\gdef\newlabel#1#2{\newlabelxx{#1}#2}
\gdef\newlabelxx#1#2#3#4#5#6{\oldnewlabel{#1}{{#2}{#3}}}
\AtEndDocument{\ifx\hyper@anchor\@undefined
\let\contentsline\oldcontentsline
\let\newlabel\oldnewlabel
\fi}
\fi}
\global\let\hyper@last\relax 
\gdef\HyperFirstAtBeginDocument#1{#1}
\providecommand\HyField@AuxAddToFields[1]{}
\providecommand\HyField@AuxAddToCoFields[2]{}
\@input{chapter1/chapter1.aux}
\@input{chapter2/chapter2.aux}
\@input{chapter3/chapter3.aux}
\@input{chapter4/chapter4.aux}
\@input{chapter5/chapter5.aux}
\bibstyle{prsty}
\bibdata{../mdornfe1.bib}
\bibcite{Gray2000Anatomy}{1}
\bibcite{Titze2006}{2}
\bibcite{Gardner2001}{3}
\bibcite{Fletcher2010}{4}
\bibcite{white1998}{5}
\bibcite{berry1970natural}{6}
\bibcite{Fenton1998}{7}
\bibcite{Jones2006}{8}
\bibcite{bogdanowicz1994}{9}
\bibcite{Frankel2009}{10}
\bibcite{Whitehead2009}{11}
\@writefile{toc}{\contentsline {chapter}{Bibliography}{164}{section*.50}}
\bibcite{Rendell1999}{12}
\bibcite{Kastelein2000}{13}
\bibcite{Jefferson1993}{14}
\bibcite{Sanders2001}{15}
\bibcite{Chanaud1970}{16}
\bibcite{Auvray2012}{17}
\bibcite{Titze1988a}{18}
\bibcite{Jedrzejewski1993}{19}
\bibcite{Brudzynski2010}{20}
\bibcite{Bass2008}{21}
\bibcite{Blumberg1990}{22}
\bibcite{Hofer1992}{23}
\bibcite{Hofer1993}{24}
\bibcite{Hofer2010}{25}
\bibcite{Brudzynski2007a}{26}
\bibcite{Blanchard1991}{27}
\bibcite{Panksepp2007}{28}
\bibcite{Brudzynski1990}{29}
\bibcite{Burgdorf2010}{30}
\bibcite{Berke2010}{31}
\bibcite{Damrose2003}{32}
\bibcite{Titze2000}{33}
\bibcite{Choi1993}{34}
\bibcite{Titze1988}{35}
\bibcite{bradbury1998principles}{36}
\bibcite{Roberts1975}{37}
\bibcite{Riede2011}{38}
\bibcite{Riede2011c}{39}
\bibcite{Inagi1998a}{40}
\bibcite{Batchelor2000}{41}
\bibcite{howe2003theory}{42}
\bibcite{Chanaud1965}{43}
\bibcite{fletcher2012physics}{44}
\bibcite{rayleigh1896theory}{45}
\bibcite{pierce1981acoustics}{46}
\bibcite{Aarts2003}{47}
\bibcite{rienstra2003introduction}{48}
\bibcite{Cummings1986}{49}
\bibcite{Ingard1967}{50}
\bibcite{Howe2008}{51}
\bibcite{rossiter1962}{52}
\bibcite{holger1977}{53}
\bibcite{coltman1976}{54}
\bibcite{Fletcher1976}{55}
\bibcite{Auvray2012a}{56}
\bibcite{Henwood2002}{57}
\bibcite{akhmetov2009vortex}{58}
\bibcite{Morris1976}{59}
\bibcite{trefethen2000spectral}{60}
\bibcite{Batchelor1962}{61}
\bibcite{Horwitz1992}{62}
\bibcite{Arneodo2009}{63}
