\relax 
\providecommand\hyper@newdestlabel[2]{}
\citation{Roberts1975}
\@writefile{toc}{\contentsline {chapter}{\numberline {3}Data Analysis of Rodent Ultrasonic Vocalizations}{66}{chapter.3}}
\@writefile{lof}{\addvspace {10\p@ }}
\@writefile{lot}{\addvspace {10\p@ }}
\newlabel{chap:analysis}{{3}{66}{Data Analysis of Rodent Ultrasonic Vocalizations}{chapter.3}{}}
\@writefile{toc}{\contentsline {section}{\numberline {3.1}Introduction}{66}{section.3.1}}
\@writefile{toc}{\contentsline {section}{\numberline {3.2}Aerodynamic Whistles}{67}{section.3.2}}
\citation{Chanaud1970}
\citation{Howe2008}
\@writefile{toc}{\contentsline {subsection}{\numberline {3.2.1}Cavity Tones}{69}{subsection.3.2.1}}
\citation{rossiter1962}
\citation{Howe2008}
\citation{Chanaud1970}
\newlabel{eq:freq_gamma}{{3.1}{70}{Cavity Tones}{equation.3.2.1}{}}
\@writefile{toc}{\contentsline {subsection}{\numberline {3.2.2}The Edge Tone}{70}{subsection.3.2.2}}
\citation{Chanaud1970}
\citation{Howe2008}
\@writefile{toc}{\contentsline {subsection}{\numberline {3.2.3}The Hole Tone}{71}{subsection.3.2.3}}
\@writefile{lof}{\contentsline {figure}{\numberline {3.1}{\ignorespaces Edge tone illustration}}{72}{figure.caption.20}}
\newlabel{fig:edge_tone}{{3.1}{72}{Edge tone illustration}{figure.caption.20}{}}
\citation{Roberts1975}
\citation{Chanaud1970}
\citation{Chanaud1970}
\@writefile{lof}{\contentsline {figure}{\numberline {3.2}{\ignorespaces Photograph of a Von K\'{a}rm\'{a}n vortex street}}{73}{figure.caption.21}}
\newlabel{fig:von_karman}{{3.2}{73}{Photograph of a Von K\'{a}rm\'{a}n vortex street}{figure.caption.21}{}}
\citation{Chanaud1965}
\citation{holger1977}
\citation{coltman1976}
\@writefile{lof}{\contentsline {figure}{\numberline {3.3}{\ignorespaces Hole tone illustration}}{74}{figure.caption.22}}
\newlabel{fig:hole_tone}{{3.3}{74}{Hole tone illustration}{figure.caption.22}{}}
\@writefile{lof}{\contentsline {figure}{\numberline {3.4}{\ignorespaces Photograph of a vortex ring}}{75}{figure.caption.23}}
\newlabel{fig:vortex_ring}{{3.4}{75}{Photograph of a vortex ring}{figure.caption.23}{}}
\@writefile{toc}{\contentsline {subsection}{\numberline {3.2.4}Frequency Jumps}{75}{subsection.3.2.4}}
\newlabel{eq:freq_jump}{{3.2}{76}{Frequency Jumps}{equation.3.2.2}{}}
\@writefile{toc}{\contentsline {section}{\numberline {3.3}Data Collection}{76}{section.3.3}}
\@writefile{toc}{\contentsline {section}{\numberline {3.4}Analysis and Discussion}{77}{section.3.4}}
\@writefile{lof}{\contentsline {figure}{\numberline {3.5}{\ignorespaces Reassigned spectrogram of rat USV}}{78}{figure.caption.24}}
\newlabel{fig:spectrogram_10}{{3.5}{78}{Reassigned spectrogram of rat USV}{figure.caption.24}{}}
\@writefile{lof}{\contentsline {figure}{\numberline {3.6}{\ignorespaces Power plotted against frequency for select time points of reassigned spectrogram}}{79}{figure.caption.25}}
\newlabel{fig:mean_freq}{{3.6}{79}{Power plotted against frequency for select time points of reassigned spectrogram}{figure.caption.25}{}}
\@writefile{lof}{\contentsline {figure}{\numberline {3.7}{\ignorespaces Spectrogram with fitted curve}}{80}{figure.caption.26}}
\newlabel{fig:fitted_curve}{{3.7}{80}{Spectrogram with fitted curve}{figure.caption.26}{}}
\@writefile{lof}{\contentsline {figure}{\numberline {3.8}{\ignorespaces Spectrogram with fitted curve and extracted jump points}}{81}{figure.caption.27}}
\newlabel{fig:fitted_curve}{{3.8}{81}{Spectrogram with fitted curve and extracted jump points}{figure.caption.27}{}}
\@writefile{lof}{\contentsline {figure}{\numberline {3.9}{\ignorespaces Extracted jump points}}{82}{figure.caption.28}}
\newlabel{fig:plot_jumps}{{3.9}{82}{Extracted jump points}{figure.caption.28}{}}
\@writefile{lof}{\contentsline {figure}{\numberline {3.10}{\ignorespaces Extracted jump points and modal lines}}{83}{figure.caption.29}}
\newlabel{fig:plot_jumps_lines}{{3.10}{83}{Extracted jump points and modal lines}{figure.caption.29}{}}
\@writefile{lof}{\contentsline {figure}{\numberline {3.11}{\ignorespaces Polygons constructed from modal lines}}{84}{figure.caption.30}}
\newlabel{fig:point_in_poly}{{3.11}{84}{Polygons constructed from modal lines}{figure.caption.30}{}}
\citation{Blanchard1991}
\citation{Panksepp2007}
\citation{Brudzynski1990}
\citation{Burgdorf2010}
\citation{Burgdorf2010}
\newlabel{eq:cost}{{3.3}{85}{Analysis and Discussion}{equation.3.4.3}{}}
\@writefile{lof}{\contentsline {figure}{\numberline {3.12}{\ignorespaces Cost function used to fit data to acoustic model}}{86}{figure.caption.31}}
\newlabel{fig:cost_plot}{{3.12}{86}{Cost function used to fit data to acoustic model}{figure.caption.31}{}}
\@writefile{lof}{\contentsline {figure}{\numberline {3.13}{\ignorespaces Clustered jump points}}{87}{figure.caption.32}}
\newlabel{fig:clustered_jumps}{{3.13}{87}{Clustered jump points}{figure.caption.32}{}}
\@writefile{lof}{\contentsline {figure}{\numberline {3.14}{\ignorespaces Estimates of $\gamma $ for several rats and known acoustic mechanisms}}{90}{figure.caption.33}}
\newlabel{fig:confidence_intervals}{{3.14}{90}{Estimates of $\gamma $ for several rats and known acoustic mechanisms}{figure.caption.33}{}}
\@setckpt{chapter3/chapter3}{
\setcounter{page}{91}
\setcounter{equation}{5}
\setcounter{enumi}{0}
\setcounter{enumii}{0}
\setcounter{enumiii}{0}
\setcounter{enumiv}{0}
\setcounter{footnote}{0}
\setcounter{mpfootnote}{0}
\setcounter{part}{0}
\setcounter{chapter}{3}
\setcounter{section}{4}
\setcounter{subsection}{0}
\setcounter{subsubsection}{0}
\setcounter{paragraph}{0}
\setcounter{subparagraph}{0}
\setcounter{figure}{14}
\setcounter{table}{0}
\setcounter{parentequation}{0}
\setcounter{ContinuedFloat}{0}
\setcounter{subfigure}{0}
\setcounter{subtable}{0}
\setcounter{Item}{0}
\setcounter{Hfootnote}{0}
\setcounter{bookmark@seq@number}{38}
\setcounter{lstnumber}{1}
\setcounter{r@tfl@t}{1}
\setcounter{section@level}{1}
\setcounter{lstlisting}{0}
}
