\relax 
\providecommand\hyper@newdestlabel[2]{}
\providecommand\HyperFirstAtBeginDocument{\AtBeginDocument}
\HyperFirstAtBeginDocument{\ifx\hyper@anchor\@undefined
\global\let\oldcontentsline\contentsline
\gdef\contentsline#1#2#3#4{\oldcontentsline{#1}{#2}{#3}}
\global\let\oldnewlabel\newlabel
\gdef\newlabel#1#2{\newlabelxx{#1}#2}
\gdef\newlabelxx#1#2#3#4#5#6{\oldnewlabel{#1}{{#2}{#3}}}
\AtEndDocument{\ifx\hyper@anchor\@undefined
\let\contentsline\oldcontentsline
\let\newlabel\oldnewlabel
\fi}
\fi}
\global\let\hyper@last\relax 
\gdef\HyperFirstAtBeginDocument#1{#1}
\providecommand\HyField@AuxAddToFields[1]{}
\providecommand\HyField@AuxAddToCoFields[2]{}
\newlabel{eq:wave}{{1}{1}{}{equation.0.0.1}{}}
\newlabel{eq:viscous2}{{3}{1}{}{equation.0.0.3}{}}
\@writefile{toc}{\contentsline {section}{\numberline {0.1}The Flow Through the Vocal Folds}{1}{section.0.1}}
\newlabel{eq:energy1}{{5}{1}{The Flow Through the Vocal Folds}{equation.0.1.5}{}}
\@writefile{lof}{\contentsline {figure}{\numberline {1}{\ignorespaces Schematic of the flow through the vocal folds. The subglottal pressure focuses air into a jet as it is forced through the vocal folds. The velocity $u_0$, along with additional pressure sources $\Delta p_{src}$ emerging from the folds drives resonances in the upper vocal tract. The pressure, at the origin, $p(0,t)$associated with these resonances provides a feedback mechanism that opposes $u_0$. \relax }}{2}{figure.caption.1}}
\providecommand*\caption@xref[2]{\@setref\relax\@undefined{#1}}
\newlabel{fig:vocal_folds}{{1}{2}{Schematic of the flow through the vocal folds. The subglottal pressure focuses air into a jet as it is forced through the vocal folds. The velocity $u_0$, along with additional pressure sources $\Delta p_{src}$ emerging from the folds drives resonances in the upper vocal tract. The pressure, at the origin, $p(0,t)$associated with these resonances provides a feedback mechanism that opposes $u_0$. \relax }{figure.caption.1}{}}
\newlabel{eq:energy2}{{6}{3}{The Flow Through the Vocal Folds}{equation.0.1.6}{}}
\newlabel{eq:energy3}{{7}{3}{The Flow Through the Vocal Folds}{equation.0.1.7}{}}
\newlabel{eq:energy4}{{8}{3}{The Flow Through the Vocal Folds}{equation.0.1.8}{}}
\newlabel{eq:energy5}{{9}{3}{The Flow Through the Vocal Folds}{equation.0.1.9}{}}
\newlabel{eq:area1}{{10}{4}{The Flow Through the Vocal Folds}{equation.0.1.10}{}}
\newlabel{eq:area2}{{11}{4}{The Flow Through the Vocal Folds}{equation.0.1.11}{}}
\newlabel{eq:energy6}{{13}{4}{The Flow Through the Vocal Folds}{equation.0.1.13}{}}
\@writefile{toc}{\contentsline {section}{\numberline {0.2}Closing the System}{4}{section.0.2}}
\newlabel{eq:viscous2}{{19}{5}{Closing the System}{equation.0.2.19}{}}
\@writefile{toc}{\contentsline {section}{\numberline {0.3}Frequency Domain Analysis}{5}{section.0.3}}
\newlabel{eq:viscous2}{{22}{5}{Frequency Domain Analysis}{equation.0.3.22}{}}
\newlabel{eq:viscous2}{{26}{6}{Frequency Domain Analysis}{equation.0.3.26}{}}
\newlabel{eq:viscous2}{{28}{6}{Frequency Domain Analysis}{equation.0.3.28}{}}
\@writefile{toc}{\contentsline {section}{\numberline {0.4}Multi Time Scales Analysis}{6}{section.0.4}}
