\relax 
\providecommand\hyper@newdestlabel[2]{}
\@writefile{toc}{\contentsline {chapter}{\numberline {4}Time Domain Model of the Rodent Vocal Tract}{91}{chapter.4}}
\@writefile{lof}{\addvspace {10\p@ }}
\@writefile{lot}{\addvspace {10\p@ }}
\newlabel{chap:model}{{4}{91}{Time Domain Model of the Rodent Vocal Tract}{chapter.4}{}}
\@writefile{toc}{\contentsline {section}{\numberline {4.1}Introduction}{91}{section.4.1}}
\citation{Chanaud1970}
\citation{Chanaud1970}
\citation{Fletcher1976}
\@writefile{toc}{\contentsline {section}{\numberline {4.2}Time Domain Models of Organ Pipes}{93}{section.4.2}}
\@writefile{lof}{\contentsline {figure}{\numberline {4.1}{\ignorespaces Illustration of an organ pipe}}{94}{figure.caption.34}}
\newlabel{fig:recorder}{{4.1}{94}{Illustration of an organ pipe}{figure.caption.34}{}}
\citation{Auvray2012a}
\newlabel{eq:modal_expansion}{{4.4}{96}{Time Domain Models of Organ Pipes}{equation.4.2.4}{}}
\newlabel{eq:fabre_oscillator}{{4.5}{96}{Time Domain Models of Organ Pipes}{equation.4.2.5}{}}
\newlabel{eq:fabre_jet_pressure}{{4.6}{96}{Time Domain Models of Organ Pipes}{equation.4.2.6}{}}
\citation{Auvray2012}
\citation{Auvray2012}
\@writefile{lof}{\contentsline {figure}{\numberline {4.2}{\ignorespaces The interaction of the planar jet with the downstream edge in a recorder}}{98}{figure.caption.35}}
\newlabel{fig:jet_edge}{{4.2}{98}{The interaction of the planar jet with the downstream edge in a recorder}{figure.caption.35}{}}
\@writefile{toc}{\contentsline {section}{\numberline {4.3}Derivation of the Model}{99}{section.4.3}}
\@writefile{lof}{\contentsline {figure}{\numberline {4.3}{\ignorespaces A schematic model of the rodent vocal tract}}{100}{figure.caption.36}}
\newlabel{fig:model}{{4.3}{100}{A schematic model of the rodent vocal tract}{figure.caption.36}{}}
\newlabel{eq:wave}{{4.9}{101}{Derivation of the Model}{equation.4.3.9}{}}
\newlabel{eq:driven_wave}{{4.10}{102}{Derivation of the Model}{equation.4.3.10}{}}
\newlabel{eq:coupled_equation}{{4.11}{102}{Derivation of the Model}{equation.4.3.11}{}}
\@writefile{toc}{\contentsline {section}{\numberline {4.4}The Spatial Eigenmodes}{103}{section.4.4}}
\newlabel{eq:homogenous_wave}{{4.12}{103}{The Spatial Eigenmodes}{equation.4.4.12}{}}
\newlabel{eq:spatial_problem}{{4.13}{103}{The Spatial Eigenmodes}{equation.4.4.13}{}}
\newlabel{eq:omega_alpha}{{4.16}{104}{The Spatial Eigenmodes}{equation.4.4.16}{}}
\newlabel{eq:coupled_equation2}{{4.18}{105}{The Spatial Eigenmodes}{equation.4.4.18}{}}
\newlabel{eq:matrix_eq1}{{4.19}{105}{The Spatial Eigenmodes}{equation.4.4.19}{}}
\@writefile{lof}{\contentsline {figure}{\numberline {4.4}{\ignorespaces Eigenfrequencies of rodent vocal tract}}{106}{figure.caption.37}}
\newlabel{fig:omega_alpha}{{4.4}{106}{Eigenfrequencies of rodent vocal tract}{figure.caption.37}{}}
\newlabel{eq:matrix_eq2}{{4.20}{107}{The Spatial Eigenmodes}{equation.4.4.20}{}}
\newlabel{eq:matrix_eq3}{{4.21}{107}{The Spatial Eigenmodes}{equation.4.4.21}{}}
\newlabel{eq:matrix_eq4}{{4.22}{107}{The Spatial Eigenmodes}{equation.4.4.22}{}}
\newlabel{eq:matrix_eq4}{{4.23}{107}{The Spatial Eigenmodes}{equation.4.4.23}{}}
\newlabel{eq:non_zero_dissipation}{{4.24}{107}{The Spatial Eigenmodes}{equation.4.4.24}{}}
\citation{Henwood2002}
\newlabel{eq:hysteretic_damping}{{4.25}{108}{The Spatial Eigenmodes}{equation.4.4.25}{}}
\@writefile{toc}{\contentsline {section}{\numberline {4.5}The Viscous Damping Approximation}{108}{section.4.5}}
\newlabel{eq:viscous}{{4.26}{108}{The Viscous Damping Approximation}{equation.4.5.26}{}}
\newlabel{eq:operating_frequencies}{{4.28}{109}{The Viscous Damping Approximation}{equation.4.5.28}{}}
\newlabel{eq:frequency_distance}{{4.29}{109}{The Viscous Damping Approximation}{equation.4.5.29}{}}
\newlabel{eq:beta}{{4.30}{109}{The Viscous Damping Approximation}{equation.4.5.30}{}}
\newlabel{eq:viscous2}{{4.31}{110}{The Viscous Damping Approximation}{equation.4.5.31}{}}
\@writefile{toc}{\contentsline {section}{\numberline {4.6}The Flow Through the Vocal Folds}{110}{section.4.6}}
\@writefile{lof}{\contentsline {figure}{\numberline {4.5}{\ignorespaces Operating frequencies of hysteretically damped and viscously damped oscillators}}{111}{figure.caption.38}}
\newlabel{fig:omegahv}{{4.5}{111}{Operating frequencies of hysteretically damped and viscously damped oscillators}{figure.caption.38}{}}
\@writefile{lof}{\contentsline {figure}{\numberline {4.6}{\ignorespaces Schematic of the flow through the vocal folds}}{112}{figure.caption.39}}
\newlabel{fig:vocal_folds}{{4.6}{112}{Schematic of the flow through the vocal folds}{figure.caption.39}{}}
\newlabel{eq:energy1}{{4.32}{113}{The Flow Through the Vocal Folds}{equation.4.6.32}{}}
\newlabel{eq:energy2}{{4.33}{113}{The Flow Through the Vocal Folds}{equation.4.6.33}{}}
\newlabel{eq:energy3}{{4.34}{114}{The Flow Through the Vocal Folds}{equation.4.6.34}{}}
\newlabel{eq:energy4}{{4.35}{114}{The Flow Through the Vocal Folds}{equation.4.6.35}{}}
\newlabel{eq:energy5}{{4.36}{114}{The Flow Through the Vocal Folds}{equation.4.6.36}{}}
\newlabel{eq:area1}{{4.37}{115}{The Flow Through the Vocal Folds}{equation.4.6.37}{}}
\newlabel{eq:area2}{{4.38}{115}{The Flow Through the Vocal Folds}{equation.4.6.38}{}}
\newlabel{eq:energy6}{{4.40}{115}{The Flow Through the Vocal Folds}{equation.4.6.40}{}}
\newlabel{eq:energy7}{{4.41}{116}{The Flow Through the Vocal Folds}{equation.4.6.41}{}}
\@writefile{toc}{\contentsline {section}{\numberline {4.7}The Time Domain ODEs}{116}{section.4.7}}
\newlabel{eq:u_dot}{{4.42}{116}{The Time Domain ODEs}{equation.4.7.42}{}}
\newlabel{eq:u_ddot}{{4.43}{117}{The Time Domain ODEs}{equation.4.7.43}{}}
\newlabel{eq:viscous3}{{4.44}{117}{The Time Domain ODEs}{equation.4.7.44}{}}
\newlabel{eq:viscous4}{{4.45}{117}{The Time Domain ODEs}{equation.4.7.45}{}}
\newlabel{eq:viscous5}{{4.46}{117}{The Time Domain ODEs}{equation.4.7.46}{}}
\newlabel{eq:u_dot}{{4.47}{118}{The Time Domain ODEs}{equation.4.7.47}{}}
\newlabel{eq:viscous6}{{4.48}{118}{The Time Domain ODEs}{equation.4.7.48}{}}
\newlabel{eq:viscous7}{{4.49}{118}{The Time Domain ODEs}{equation.4.7.49}{}}
\newlabel{eq:viscous8}{{4.50}{118}{The Time Domain ODEs}{equation.4.7.50}{}}
\citation{Riede2011}
\@writefile{lof}{\contentsline {figure}{\numberline {4.7}{\ignorespaces The negative of the least stable eigenvalue of the Jacobian of the derived acoustic model}}{121}{figure.caption.40}}
\newlabel{fig:jacobian_eigs}{{4.7}{121}{The negative of the least stable eigenvalue of the Jacobian of the derived acoustic model}{figure.caption.40}{}}
\@setckpt{chapter4/chapter4}{
\setcounter{page}{122}
\setcounter{equation}{52}
\setcounter{enumi}{0}
\setcounter{enumii}{0}
\setcounter{enumiii}{0}
\setcounter{enumiv}{0}
\setcounter{footnote}{0}
\setcounter{mpfootnote}{0}
\setcounter{part}{0}
\setcounter{chapter}{4}
\setcounter{section}{7}
\setcounter{subsection}{0}
\setcounter{subsubsection}{0}
\setcounter{paragraph}{0}
\setcounter{subparagraph}{0}
\setcounter{figure}{7}
\setcounter{table}{0}
\setcounter{parentequation}{0}
\setcounter{ContinuedFloat}{0}
\setcounter{subfigure}{0}
\setcounter{subtable}{0}
\setcounter{Item}{0}
\setcounter{Hfootnote}{0}
\setcounter{bookmark@seq@number}{46}
\setcounter{lstnumber}{1}
\setcounter{r@tfl@t}{1}
\setcounter{section@level}{1}
\setcounter{lstlisting}{0}
}
