\relax 
\providecommand\hyper@newdestlabel[2]{}
\providecommand\HyperFirstAtBeginDocument{\AtBeginDocument}
\HyperFirstAtBeginDocument{\ifx\hyper@anchor\@undefined
\global\let\oldcontentsline\contentsline
\gdef\contentsline#1#2#3#4{\oldcontentsline{#1}{#2}{#3}}
\global\let\oldnewlabel\newlabel
\gdef\newlabel#1#2{\newlabelxx{#1}#2}
\gdef\newlabelxx#1#2#3#4#5#6{\oldnewlabel{#1}{{#2}{#3}}}
\AtEndDocument{\ifx\hyper@anchor\@undefined
\let\contentsline\oldcontentsline
\let\newlabel\oldnewlabel
\fi}
\fi}
\global\let\hyper@last\relax 
\gdef\HyperFirstAtBeginDocument#1{#1}
\providecommand\HyField@AuxAddToFields[1]{}
\providecommand\HyField@AuxAddToCoFields[2]{}
\bibstyle{apsrev}
\newlabel{LastPage}{{}{1}{}{page.1}{}}
\@writefile{toc}{\appendix }
\newlabel{App:add_data}{{}{1}{}{section*.1}{}}
\@writefile{toc}{\contentsline {section}{\numberline {}Appendix: Clustered Jumps and Cost Functions }{1}{section*.1}}
\@writefile{lof}{\contentsline {figure}{\numberline {1}{\ignorespaces For rat V1, left shows plot of $C\left (\gamma \right )$ as a function of $\gamma $. Right shows output of clustering algorithm with $\gamma $ equal to the value shown in Fig. \ref  {fig:gamma_error}.}}{2}{figure.1}}
\@writefile{lof}{\contentsline {figure}{\numberline {2}{\ignorespaces For rat V2, left shows plot of $C\left (\gamma \right )$ as a function of $\gamma $. Right shows output of clustering algorithm with $\gamma $ equal to the value shown in Fig. \ref  {fig:gamma_error}.}}{2}{figure.2}}
\@writefile{lof}{\contentsline {figure}{\numberline {3}{\ignorespaces For rat V3, left shows plot of $C\left (\gamma \right )$ as a function of $\gamma $. Right shows output of clustering algorithm with $\gamma $ equal to the value shown in Fig. \ref  {fig:gamma_error}.}}{3}{figure.3}}
\@writefile{lof}{\contentsline {figure}{\numberline {4}{\ignorespaces For rat V4, left shows plot of $C\left (\gamma \right )$ as a function of $\gamma $. Right shows output of clustering algorithm with $\gamma $ equal to the value shown in Fig. \ref  {fig:gamma_error}.}}{3}{figure.4}}
\@writefile{lof}{\contentsline {figure}{\numberline {5}{\ignorespaces For rat V5, left shows plot of $C\left (\gamma \right )$ as a function of $\gamma $. Right shows output of clustering algorithm with $\gamma $ equal to the value shown in Fig. \ref  {fig:gamma_error}.}}{4}{figure.5}}
\@writefile{lof}{\contentsline {figure}{\numberline {6}{\ignorespaces For rat V6, left shows plot of $C\left (\gamma \right )$ as a function of $\gamma $. Right shows output of clustering algorithm with $\gamma $ equal to the value shown in Fig. \ref  {fig:gamma_error}.}}{4}{figure.6}}
\@writefile{lof}{\contentsline {figure}{\numberline {7}{\ignorespaces For rat V15, left shows plot of $C\left (\gamma \right )$ as a function of $\gamma $. Right shows output of clustering algorithm with $\gamma $ equal to the value shown in Fig. \ref  {fig:gamma_error}.}}{5}{figure.7}}
\@writefile{lof}{\contentsline {figure}{\numberline {8}{\ignorespaces For rat V17, left shows plot of $C\left (\gamma \right )$ as a function of $\gamma $. Right shows output of clustering algorithm with $\gamma $ equal to the value shown in Fig. \ref  {fig:gamma_error}.}}{5}{figure.8}}
\@writefile{lof}{\contentsline {figure}{\numberline {9}{\ignorespaces For rat V18, left shows plot of $C\left (\gamma \right )$ as a function of $\gamma $. Right shows output of clustering algorithm with $\gamma $ equal to the value shown in Fig. \ref  {fig:gamma_error}.}}{6}{figure.9}}
\@writefile{lof}{\contentsline {figure}{\numberline {10}{\ignorespaces For rat V31, left shows plot of $C\left (\gamma \right )$ as a function of $\gamma $. Right shows output of clustering algorithm with $\gamma $ equal to the value shown in Fig. \ref  {fig:gamma_error}.}}{6}{figure.10}}
\@writefile{lof}{\contentsline {figure}{\numberline {11}{\ignorespaces For rat V32, left shows plot of $C\left (\gamma \right )$ as a function of $\gamma $. Right shows output of clustering algorithm with $\gamma $ equal to the value shown in Fig. \ref  {fig:gamma_error}.}}{7}{figure.11}}
