\relax 
\providecommand\hyper@newdestlabel[2]{}
\citation{Auvray2012a}
\@writefile{toc}{\contentsline {chapter}{\numberline {5}The Force Due to Vorticity}{122}{chapter.5}}
\@writefile{lof}{\addvspace {10\p@ }}
\@writefile{lot}{\addvspace {10\p@ }}
\newlabel{chap:vorticity}{{5}{122}{The Force Due to Vorticity}{chapter.5}{}}
\@writefile{toc}{\contentsline {section}{\numberline {5.1}Introduction}{122}{section.5.1}}
\citation{akhmetov2009vortex}
\@writefile{toc}{\contentsline {section}{\numberline {5.2}The Force Due to Unsteady Vorticity}{123}{section.5.2}}
\newlabel{eq:F_omega}{{5.2}{124}{The Force Due to Unsteady Vorticity}{equation.5.2.2}{}}
\citation{Morris1976}
\@writefile{toc}{\contentsline {section}{\numberline {5.3}Linear Vorticity Evolution in a Pipe}{125}{section.5.3}}
\@writefile{toc}{\contentsline {subsection}{\numberline {5.3.1}The Linearized Flow Equations}{126}{subsection.5.3.1}}
\newlabel{eq:euler_nond}{{5.7}{126}{The Linearized Flow Equations}{equation.5.3.7}{}}
\@writefile{lof}{\contentsline {figure}{\numberline {5.1}{\ignorespaces Mean flow profile of the jet}}{127}{figure.caption.41}}
\newlabel{fig:mean_flow}{{5.1}{127}{Mean flow profile of the jet}{figure.caption.41}{}}
\newlabel{eq:mean_fluctuation}{{5.8}{128}{The Linearized Flow Equations}{equation.5.3.8}{}}
\newlabel{eq:linear_disturbance1}{{5.9}{128}{The Linearized Flow Equations}{equation.5.3.9}{}}
\newlabel{eq:linear_pressure}{{5.10}{128}{The Linearized Flow Equations}{equation.5.3.10}{}}
\newlabel{eq:linear_disturbance2}{{5.11}{128}{The Linearized Flow Equations}{equation.5.3.11}{}}
\newlabel{eq:radial1}{{5.12}{129}{The Linearized Flow Equations}{equation.5.3.12}{}}
\@writefile{toc}{\contentsline {subsection}{\numberline {5.3.2}The Chebyshev Method}{129}{subsection.5.3.2}}
\citation{trefethen2000spectral}
\@writefile{toc}{\contentsline {subsection}{\numberline {5.3.3}The Temporal or Initial Value Problem}{130}{subsection.5.3.3}}
\newlabel{eq:t_laplace}{{5.16}{131}{The Temporal or Initial Value Problem}{equation.5.3.16}{}}
\newlabel{eq:x_fourier}{{5.17}{131}{The Temporal or Initial Value Problem}{equation.5.3.17}{}}
\newlabel{eq:radial2}{{5.18}{131}{The Temporal or Initial Value Problem}{equation.5.3.18}{}}
\newlabel{eq:radial3}{{5.21}{131}{The Temporal or Initial Value Problem}{equation.5.3.21}{}}
\citation{Batchelor1962}
\newlabel{eq:time_boundary}{{5.24}{132}{The Temporal or Initial Value Problem}{equation.5.3.24}{}}
\newlabel{eq:time_boundary_homo}{{5.25}{133}{The Temporal or Initial Value Problem}{equation.5.3.25}{}}
\newlabel{eq:time_eigenvalue}{{5.26}{133}{The Temporal or Initial Value Problem}{equation.5.3.26}{}}
\@writefile{lof}{\contentsline {figure}{\numberline {5.2}{\ignorespaces Eigenvalues of the temporal problem}}{135}{figure.caption.42}}
\newlabel{fig:omega_spectrum}{{5.2}{135}{Eigenvalues of the temporal problem}{figure.caption.42}{}}
\@writefile{lof}{\contentsline {figure}{\numberline {5.3}{\ignorespaces Real and imaginary parts of the most unstable eigenvalue for the temporal problem}}{136}{figure.caption.43}}
\newlabel{fig:omega_unstable}{{5.3}{136}{Real and imaginary parts of the most unstable eigenvalue for the temporal problem}{figure.caption.43}{}}
\newlabel{eq:omega_inversion}{{5.33}{137}{The Temporal or Initial Value Problem}{equation.5.3.33}{}}
\@writefile{lof}{\contentsline {figure}{\numberline {5.4}{\ignorespaces Azimuthal vorticity perturbation}}{139}{figure.caption.44}}
\newlabel{fig:ivp}{{5.4}{139}{Azimuthal vorticity perturbation}{figure.caption.44}{}}
\@writefile{toc}{\contentsline {subsection}{\numberline {5.3.4}The Spatial or Signaling Problem}{140}{subsection.5.3.4}}
\newlabel{eq:x_laplace}{{5.38}{140}{The Spatial or Signaling Problem}{equation.5.3.38}{}}
\newlabel{eq:t_fourier}{{5.39}{140}{The Spatial or Signaling Problem}{equation.5.3.39}{}}
\newlabel{eq:radial_x_1}{{5.40}{140}{The Spatial or Signaling Problem}{equation.5.3.40}{}}
\newlabel{eq:radial_x_2}{{5.41}{140}{The Spatial or Signaling Problem}{equation.5.3.41}{}}
\newlabel{eq:radial_x_3}{{5.44}{141}{The Spatial or Signaling Problem}{equation.5.3.44}{}}
\newlabel{eq:spatial_homo}{{5.49}{142}{The Spatial or Signaling Problem}{equation.5.3.49}{}}
\newlabel{eq:space_eigenvalue}{{5.50}{143}{The Spatial or Signaling Problem}{equation.5.3.50}{}}
\@writefile{lof}{\contentsline {figure}{\numberline {5.5}{\ignorespaces Eigenvalue spectrum for the spatial problem}}{144}{figure.caption.45}}
\newlabel{fig:alpha_spectrum1}{{5.5}{144}{Eigenvalue spectrum for the spatial problem}{figure.caption.45}{}}
\@writefile{lof}{\contentsline {figure}{\numberline {5.6}{\ignorespaces Non-neutrally stable eigenvalues for the spatial problem}}{145}{figure.caption.46}}
\newlabel{fig:alpha_spectrum2}{{5.6}{145}{Non-neutrally stable eigenvalues for the spatial problem}{figure.caption.46}{}}
\citation{Horwitz1992}
\newlabel{eq:alpha_invert1}{{5.57}{147}{The Spatial or Signaling Problem}{equation.5.3.57}{}}
\newlabel{eq:alpha_invert2}{{5.58}{147}{The Spatial or Signaling Problem}{equation.5.3.58}{}}
\newlabel{eq:alpha_invert3}{{5.59}{147}{The Spatial or Signaling Problem}{equation.5.3.59}{}}
\citation{Chanaud1965}
\@writefile{toc}{\contentsline {subsection}{\numberline {5.3.5}Discussion}{148}{subsection.5.3.5}}
\@writefile{toc}{\contentsline {section}{\numberline {5.4}Nonlinear Time Domain Approach}{149}{section.5.4}}
\newlabel{eq:stokes}{{5.60}{150}{Nonlinear Time Domain Approach}{equation.5.4.60}{}}
\newlabel{eq:axi_euler2}{{5.64}{151}{Nonlinear Time Domain Approach}{equation.5.4.64}{}}
\newlabel{eq:euler3}{{5.70}{153}{Nonlinear Time Domain Approach}{equation.5.4.70}{}}
\newlabel{eq:stream_modes}{{5.73}{154}{Nonlinear Time Domain Approach}{equation.5.4.73}{}}
\@writefile{toc}{\contentsline {subsection}{\numberline {5.4.1}Connection to Acoustic Flow}{154}{subsection.5.4.1}}
\newlabel{eq:u_dot}{{5.75}{155}{Connection to Acoustic Flow}{equation.5.4.75}{}}
\newlabel{eq:acoustic}{{5.76}{155}{Connection to Acoustic Flow}{equation.5.4.76}{}}
\newlabel{eq:p_{src}}{{5.84}{157}{Connection to Acoustic Flow}{equation.5.4.84}{}}
\newlabel{eq:acoustic2}{{5.88}{158}{Connection to Acoustic Flow}{equation.5.4.88}{}}
\newlabel{eq:acoustic3}{{5.90}{158}{Connection to Acoustic Flow}{equation.5.4.90}{}}
\@writefile{toc}{\contentsline {subsection}{\numberline {5.4.2}Analysis and Discussion}{158}{subsection.5.4.2}}
\@writefile{lof}{\contentsline {figure}{\numberline {5.7}{\ignorespaces The jet velocity entering the pharynx}}{159}{figure.caption.47}}
\newlabel{fig:pressure_sweep_u0}{{5.7}{159}{The jet velocity entering the pharynx}{figure.caption.47}{}}
\citation{Arneodo2009}
\citation{Auvray2012a}
\@writefile{lof}{\contentsline {figure}{\numberline {5.8}{\ignorespaces The modulus squared of the Fourier transform of $u_0$ plotted against the subglottal pressure $p$}}{161}{figure.caption.48}}
\newlabel{fig:pressure_sweep_specgram}{{5.8}{161}{The modulus squared of the Fourier transform of $u_0$ plotted against the subglottal pressure $p$}{figure.caption.48}{}}
\@writefile{lof}{\contentsline {figure}{\numberline {5.9}{\ignorespaces Stability of the fixed point approached by the vortex-acoustic model}}{162}{figure.caption.49}}
\newlabel{fig:bifurcation}{{5.9}{162}{Stability of the fixed point approached by the vortex-acoustic model}{figure.caption.49}{}}
\@setckpt{chapter5/chapter5}{
\setcounter{page}{164}
\setcounter{equation}{90}
\setcounter{enumi}{0}
\setcounter{enumii}{0}
\setcounter{enumiii}{0}
\setcounter{enumiv}{0}
\setcounter{footnote}{0}
\setcounter{mpfootnote}{0}
\setcounter{part}{0}
\setcounter{chapter}{5}
\setcounter{section}{4}
\setcounter{subsection}{2}
\setcounter{subsubsection}{0}
\setcounter{paragraph}{0}
\setcounter{subparagraph}{0}
\setcounter{figure}{9}
\setcounter{table}{0}
\setcounter{parentequation}{0}
\setcounter{ContinuedFloat}{0}
\setcounter{subfigure}{0}
\setcounter{subtable}{0}
\setcounter{Item}{0}
\setcounter{Hfootnote}{0}
\setcounter{bookmark@seq@number}{58}
\setcounter{lstnumber}{1}
\setcounter{r@tfl@t}{1}
\setcounter{section@level}{2}
\setcounter{lstlisting}{0}
}
