\relax 
\providecommand\hyper@newdestlabel[2]{}
\providecommand\HyperFirstAtBeginDocument{\AtBeginDocument}
\HyperFirstAtBeginDocument{\ifx\hyper@anchor\@undefined
\global\let\oldcontentsline\contentsline
\gdef\contentsline#1#2#3#4{\oldcontentsline{#1}{#2}{#3}}
\global\let\oldnewlabel\newlabel
\gdef\newlabel#1#2{\newlabelxx{#1}#2}
\gdef\newlabelxx#1#2#3#4#5#6{\oldnewlabel{#1}{{#2}{#3}}}
\AtEndDocument{\ifx\hyper@anchor\@undefined
\let\contentsline\oldcontentsline
\let\newlabel\oldnewlabel
\fi}
\fi}
\global\let\hyper@last\relax 
\gdef\HyperFirstAtBeginDocument#1{#1}
\providecommand\HyField@AuxAddToFields[1]{}
\providecommand\HyField@AuxAddToCoFields[2]{}
\newlabel{eq:stream_modes}{{13}{3}{}{equation.0.0.13}{}}
\@writefile{toc}{\contentsline {section}{\numberline {0.1}Connection to Acoustic Flow}{3}{section.0.1}}
\newlabel{eq:u_dot}{{15}{3}{Connection to Acoustic Flow}{equation.0.1.15}{}}
\newlabel{eq:acoustic}{{16}{3}{Connection to Acoustic Flow}{equation.0.1.16}{}}
\newlabel{eq:p_{src}}{{20}{4}{Connection to Acoustic Flow}{equation.0.1.20}{}}
\newlabel{eq:acoustic}{{22}{4}{Connection to Acoustic Flow}{equation.0.1.22}{}}
