\relax 
\providecommand\hyper@newdestlabel[2]{}
\citation{Titze1988a}
\@writefile{toc}{\contentsline {chapter}{\numberline {1}Background on Sonic and Ultrasonic Vocalizations}{1}{chapter.1}}
\@writefile{lof}{\addvspace {10\p@ }}
\@writefile{lot}{\addvspace {10\p@ }}
\@writefile{toc}{\contentsline {section}{\numberline {1.1}Introduction}{1}{section.1.1}}
\citation{Jedrzejewski1993}
\citation{Brudzynski2010}
\@writefile{toc}{\contentsline {section}{\numberline {1.2}Ethology of Rodent Ultrasonic Vocalizations}{2}{section.1.2}}
\citation{Bass2008}
\citation{Blumberg1990}
\citation{Hofer1992}
\citation{Hofer1993}
\citation{Hofer2010}
\citation{Brudzynski2007a}
\citation{Blanchard1991}
\citation{Panksepp2007}
\citation{Brudzynski1990}
\citation{Burgdorf2010}
\citation{Burgdorf2010}
\citation{Berke2010}
\citation{Berke2010}
\citation{Gray2000Anatomy}
\citation{Gray2000Anatomy}
\@writefile{lof}{\contentsline {figure}{\numberline {1.1}{\ignorespaces Spectrogram of 60-kHz trill call.\relax }}{6}{figure.caption.5}}
\providecommand*\caption@xref[2]{\@setref\relax\@undefined{#1}}
\newlabel{fig:specgram1}{{1.1}{6}{Spectrogram of 60-kHz trill call.\relax }{figure.caption.5}{}}
\@writefile{lof}{\contentsline {figure}{\numberline {1.2}{\ignorespaces Spectrogram of flat to trill call.\relax }}{7}{figure.caption.6}}
\newlabel{fig:specgram2}{{1.2}{7}{Spectrogram of flat to trill call.\relax }{figure.caption.6}{}}
\@writefile{lof}{\contentsline {figure}{\numberline {1.3}{\ignorespaces Spectrogram of 30-kHz to 50-khz flat call with frequency jump.\relax }}{7}{figure.caption.7}}
\newlabel{fig:specgram3}{{1.3}{7}{Spectrogram of 30-kHz to 50-khz flat call with frequency jump.\relax }{figure.caption.7}{}}
\@writefile{toc}{\contentsline {section}{\numberline {1.3}Anatomy of the Larynx}{8}{section.1.3}}
\citation{Gray2000Anatomy}
\citation{Gray2000Anatomy}
\citation{Damrose2003}
\citation{Berke2010}
\@writefile{lof}{\contentsline {figure}{\numberline {1.4}{\ignorespaces Ligaments of the human larynx}}{10}{figure.caption.8}}
\newlabel{fig:laryngeal_cartilage}{{1.4}{10}{Ligaments of the human larynx}{figure.caption.8}{}}
\@writefile{lof}{\contentsline {figure}{\numberline {1.5}{\ignorespaces Human Laryngeal Muscles}}{11}{figure.caption.9}}
\newlabel{fig:laryngeal_muscles}{{1.5}{11}{Human Laryngeal Muscles}{figure.caption.9}{}}
\citation{Titze2000}
\citation{Berke2010}
\citation{Gray2000Anatomy}
\citation{Gray2000Anatomy}
\@writefile{toc}{\contentsline {section}{\numberline {1.4}Physics of Vibrating Vocal Folds}{12}{section.1.4}}
\citation{Berke2010}
\citation{Titze2000}
\citation{Choi1993}
\citation{Titze1988}
\@writefile{lof}{\contentsline {figure}{\numberline {1.6}{\ignorespaces The vagus nerve}}{14}{figure.caption.10}}
\newlabel{fig:vagus_nerve}{{1.6}{14}{The vagus nerve}{figure.caption.10}{}}
\citation{Titze1988}
\citation{Titze1988a}
\@writefile{lof}{\contentsline {figure}{\numberline {1.7}{\ignorespaces Fundamental frequency according to the body cover model}}{16}{figure.caption.11}}
\newlabel{fig:f0_vs_ata}{{1.7}{16}{Fundamental frequency according to the body cover model}{figure.caption.11}{}}
\citation{Titze2006}
\citation{Titze2006}
\citation{Gardner2001}
\@writefile{lof}{\contentsline {figure}{\numberline {1.8}{\ignorespaces Single mass model of the vocal folds}}{18}{figure.caption.12}}
\newlabel{fig:vocal_folds_spring}{{1.8}{18}{Single mass model of the vocal folds}{figure.caption.12}{}}
\citation{Gardner2001}
\citation{Gardner2001}
\citation{Gardner2001}
\citation{Gardner2001}
\citation{bradbury1998principles}
\newlabel{eq:magnasco_model}{{1.3}{19}{Physics of Vibrating Vocal Folds}{equation.1.4.3}{}}
\@writefile{toc}{\contentsline {section}{\numberline {1.5}The Failure of Vibrating Vocal Fold Models for Ultrasonic Vocalizations}{19}{section.1.5}}
\@writefile{lof}{\contentsline {figure}{\numberline {1.9}{\ignorespaces Bifurcation diagram of nonlinear vibrating vocal fold model}}{20}{figure.caption.13}}
\newlabel{fig:magnasco_hopf}{{1.9}{20}{Bifurcation diagram of nonlinear vibrating vocal fold model}{figure.caption.13}{}}
\@writefile{lof}{\contentsline {figure}{\numberline {1.10}{\ignorespaces Synthetic and real syllable of a canary song}}{20}{figure.caption.14}}
\newlabel{fig:magnasco_hopf}{{1.10}{20}{Synthetic and real syllable of a canary song}{figure.caption.14}{}}
\citation{Fletcher2010}
\newlabel{eq:power_generated}{{1.5}{21}{The Failure of Vibrating Vocal Fold Models for Ultrasonic Vocalizations}{equation.1.5.5}{}}
\citation{Fletcher2010}
\citation{white1998}
\citation{berry1970natural}
\citation{Fenton1998}
\citation{Jones2006}
\citation{bogdanowicz1994}
\citation{Frankel2009}
\citation{Whitehead2009}
\citation{Rendell1999}
\citation{Kastelein2000}
\citation{Jefferson1993}
\citation{Fletcher2010}
\citation{white1998}
\citation{berry1970natural}
\citation{Fenton1998}
\citation{Jones2006}
\citation{bogdanowicz1994}
\citation{Frankel2009}
\citation{Whitehead2009}
\citation{Rendell1999}
\citation{Kastelein2000}
\citation{Jefferson1993}
\newlabel{eq:intensity_generated}{{1.6}{22}{The Failure of Vibrating Vocal Fold Models for Ultrasonic Vocalizations}{equation.1.5.6}{}}
\newlabel{eq:signal_received}{{1.7}{22}{The Failure of Vibrating Vocal Fold Models for Ultrasonic Vocalizations}{equation.1.5.7}{}}
\newlabel{eq:signal_received2}{{1.8}{22}{The Failure of Vibrating Vocal Fold Models for Ultrasonic Vocalizations}{equation.1.5.8}{}}
\citation{Roberts1975}
\citation{Riede2011}
\citation{Riede2011c}
\newlabel{fig:frequency_scaling}{{\caption@xref {fig:frequency_scaling}{ on input line 174}}{24}{The Failure of Vibrating Vocal Fold Models for Ultrasonic Vocalizations}{figure.caption.15}{}}
\@writefile{lof}{\contentsline {figure}{\numberline {1.11}{\ignorespaces Frequency scaling rule for mammalian vocalizations}}{24}{figure.caption.15}}
\newlabel{fig:scaling_law}{{1.11}{24}{Frequency scaling rule for mammalian vocalizations}{figure.caption.15}{}}
\citation{Roberts1975}
\citation{Inagi1998a}
\citation{Sanders2001}
\citation{Sanders2001}
\citation{Sanders2001}
\newlabel{RF1}{28}
\@writefile{lof}{\contentsline {figure}{\numberline {1.12}{\ignorespaces Photograph of rat vocal folds}}{28}{figure.caption.16}}
\newlabel{fig:sanders}{{1.12}{28}{Photograph of rat vocal folds}{figure.caption.16}{}}
\@setckpt{chapter1/chapter1}{
\setcounter{page}{29}
\setcounter{equation}{9}
\setcounter{enumi}{0}
\setcounter{enumii}{0}
\setcounter{enumiii}{0}
\setcounter{enumiv}{0}
\setcounter{footnote}{0}
\setcounter{mpfootnote}{0}
\setcounter{part}{0}
\setcounter{chapter}{1}
\setcounter{section}{5}
\setcounter{subsection}{0}
\setcounter{subsubsection}{0}
\setcounter{paragraph}{0}
\setcounter{subparagraph}{0}
\setcounter{figure}{12}
\setcounter{table}{0}
\setcounter{parentequation}{0}
\setcounter{ContinuedFloat}{0}
\setcounter{subfigure}{0}
\setcounter{subtable}{0}
\setcounter{Item}{0}
\setcounter{Hfootnote}{0}
\setcounter{bookmark@seq@number}{6}
\setcounter{lstnumber}{1}
\setcounter{r@tfl@t}{1}
\setcounter{section@level}{1}
\setcounter{lstlisting}{0}
}
